{
"result" :
  {
  "data" : [
    {
      "id" : "w01",
      "title" : "My Saved Filters",
      "description" : "",
      "creator" : "Fresh Consulting",
      "url" : "/Dashboard/widgets/MySavedFilters.aspx",
      "image": "/Dashboard/widgets/SavedFilter.png",
	  "maximum": "3"
    },
    {
      "id" : "w02",
      "title" : "My Saved Filter: Custom List View",
      "description" : "",
      "creator" : "Fresh Consulting",
      "url" : "/Dashboard/widgets/MySavedFiltersListView.aspx",
      "image": "/Dashboard/widgets/MySavedFilters.png",
	  "maximum": "3"
    },
    {
      "id" : "w03",
      "title" : "My Links",
      "description" : "",
      "creator" : "Fresh Consulting",
      "url" : "/Dashboard/widgets/SavedLinks.aspx",
      "image": "/Dashboard/widgets/SavedLinks.png",
	  "maximum": "1"
    },
	{
      "id" : "w04",
      "title" : "Recent Comments",
      "description" : "",
      "creator" : "Fresh Consulting",
      "url" : "/Dashboard/widgets/MyCommentFilters.aspx",
      "image": "/Dashboard/widgets/MyCommentFilters.png",
	  "maximum": "1"
    },
	{
      "id" : "w05",
      "title" : "New Applications",
      "description" : "",
      "creator" : "Fresh Consulting",
      "url" : "/Dashboard/widgets/newApplications.html",
      "image": "/Dashboard/widgets/newApplications.png",
	  "maximum": "1"
    }, 
	{
      "id" : "w06",
      "title" : "Applications by Major Milestone",
      "description" : "",
      "creator" : "Fresh Consulting",
      "url" : "/Dashboard/widgets/widget-chart1.html",
      "image": "/Dashboard/widgets/widget-chart1.png",
	  "maximum": "1"
    },  
    {
      "id" : "w07",
      "title" : "My Lease Applications by Type",
      "description" : "",
      "creator" : "Fresh Consulting",
      "url" : "/Dashboard/widgets/LeaseAppsByTypeWidget.html",
      "image": "/Dashboard/widgets/LeaseAppsByTypeData.png",
	  "maximum": "1"
    },
    {
      "id" : "w08",
      "title" : "Lease Applications by Customer",
      "description" : "",
      "creator" : "Fresh Consulting",
      "url" : "/Dashboard/widgets/LeaseAppsByCustomerWidget.html",
      "image": "/Dashboard/widgets/LeaseAppsByCustomerData.png",
	  "maximum": "1"
    },
    {
      "id" : "w09",
      "title" : "Lease Applications by Status",
      "description" : "",
      "creator" : "Fresh Consulting",
      "url" : "/Dashboard/widgets/LeaseAppsByStatusWidget.html",
      "image": "/Dashboard/widgets/LeaseAppsByStatusData.png",
	  "maximum": "1"
    },
    {
      "id" : "w10",
      "title" : "My Assigned Issues",
      "description" : "",
      "creator" : "Fresh Consulting",
      "url" : "/Dashboard/widgets/MyAssignedIssues.aspx",
      "image": "/Dashboard/widgets/MyAssignedIssues.png",
	  "maximum": "1"
    },
    {
      "id" : "w11",
      "title" : "Fields Missing Documents",
      "description" : "",
      "creator" : "Fresh Consulting",
      "url" : "/Dashboard/widgets/MyDocumentFilter.aspx",
      "image": "/Dashboard/widgets/MyAssignedIssues.png",
	  "maximum": "1"
    },
    {
      "id" : "w12",
      "title" : "Recent Documents",
      "description" : "",
      "creator" : "Fresh Consulting",
      "url" : "/Dashboard/widgets/RecentDocument.aspx",
      "image": "/Dashboard/widgets/MyAssignedIssues.png",
	  "maximum": "1"
    }
  ]
  }
}