{
"result" :
  {
  "layout": "layout2",
  "data" : [
    {
      "title" : "My Saved Filters",
      "column" : "first",
      "id" : "widget1",
      "url" : "/Dashboard/widgets/MySavedFilters.aspx",
      "editurl" : "/Dashboard/widgets/editwidget3.html",
      "open" : true
    },
    {
      "title" : "My Saved Filter: None Selected",
      "column" : "second",
      "id" : "widget2",
      "url" : "/Dashboard/widgets/MySavedFiltersListView.aspx",
      "editurl" : "/Dashboard/widgets/editwidget3.html",
      "open" : true
    },  
    {
      "title" : "My Links",
      "id" : "widget3",
      "column" : "first",
      "url" : "/Dashboard/widgets/SavedLinks.aspx",
      "editurl" : "/Account/SavedLinks.aspx",
      "open" : true
    },
    {
      "title" : "Applications by Major Milestone",
      "column" : "second",
      "id" : "widget6",
      "url" : "/Dashboard/widgets/widget-chart1.html",
      "editurl" : "/Dashboard/widgets/editwidget1.html",
      "open" : true
    },    
    {
      "title" : "My Lease Applications by Type",
      "id" : "widget7",
      "column" : "second",
      "url" : "/Dashboard/widgets/LeaseAppsByTypeWidget.html",
      "editurl" : "/Dashboard/widgets/editwidget4.html",
      "open" : true
    },
	{
      "title" : "Lease Applications by Status",
      "id" : "widget8",
      "column" : "first",
      "url" : "/Dashboard/widgets/LeaseAppsByStatusWidget.html",
      "editurl" : "/Dashboard/widgets/editwidget4.html",
      "open" : true
    },
    {
      "title" : "Lease Applications by Customer",
      "id" : "widget9",
      "column" : "second",
      "url" : "/Dashboard/widgets/LeaseAppsByCustomerWidget.html",
      "editurl" : "/Dashboard/widgets/editwidget4.html",
      "open" : true
    }
  ]
  }
}

